<svg width="190" height="40" viewBox="0 0 190 40" fill="none" xmlns="http://www.w3.org/2000/svg">
<path d="M22.3883 2.4544L14.5811 14.0104L30.9275 37.4184C31.9235 38.8432 34.1427 40 35.8811 40H50.0547C54.4003 40 55.9387 37.0864 53.4875 33.4984L31.9475 1.9656C30.7987 0.7552 29.1755 0 27.3771 0C25.3475 0 23.5411 0.9616 22.3883 2.4544Z" fill="url(#paint0_linear_320_2611)"/>
<g opacity="0.9">
<g opacity="0.9">
<path d="M34.6271 22.232C34.6159 22.2309 34.6045 22.2301 34.5927 22.2296L23.8423 37.4288C22.8383 38.848 20.6119 40 18.8735 40H4.70073C0.355128 40 -1.18327 37.0864 1.26793 33.4984L22.8079 1.9656C23.9559 0.7552 25.5791 0 27.3775 0C29.1791 0 30.8047 0.7576 31.9535 1.9712L40.2911 14.1736L46.3127 22.9848C46.2743 22.928 46.2127 22.8776 46.1311 22.8336C45.0423 20.6664 42.7975 19.1776 40.2079 19.1776C37.8647 19.1776 35.8047 20.396 34.6271 22.232Z" fill="#128AC3"/>
</g>
</g>
<path d="M68.3847 10.1888C70.765 10.1888 72.5855 10.759 73.8463 11.8992C75.1071 13.039 75.7375 14.7587 75.7375 17.0584V26.5296H72.1671V24.5624C71.7031 25.2686 71.0423 25.8083 70.1847 26.1817C69.3277 26.555 68.2938 26.7416 67.0831 26.7416C65.873 26.7416 64.8141 26.5347 63.9063 26.1208C62.9981 25.7075 62.297 25.1326 61.8031 24.396C61.3087 23.66 61.0615 22.828 61.0615 21.9C61.0615 20.4472 61.6013 19.2822 62.6807 18.4048C63.7597 17.5275 65.4591 17.0888 67.7791 17.0888H71.9551V16.8464C71.9551 15.7168 71.6173 14.8494 70.9415 14.244C70.2658 13.6387 69.2621 13.336 67.9303 13.336C67.0226 13.336 66.1301 13.4774 65.2527 13.76C64.3749 14.0422 63.6335 14.4355 63.0287 14.94L61.5455 12.1864C62.393 11.5406 63.4119 11.0462 64.6023 10.7032C65.7922 10.3603 67.053 10.1888 68.3847 10.1888ZM67.8703 23.9881C68.8181 23.9881 69.6602 23.771 70.3967 23.3368C71.1333 22.9032 71.6527 22.283 71.9551 21.476V19.6H68.0519C65.8727 19.6 64.7831 20.3163 64.7831 21.7488C64.7831 22.4347 65.0557 22.9792 65.6007 23.3825C66.1453 23.7862 66.9018 23.9881 67.8703 23.9881ZM88.5279 10.1888C90.1013 10.1888 91.5082 10.5318 92.7487 11.2176C93.9893 11.904 94.9626 12.8726 95.6687 14.1232C96.3749 15.3739 96.7279 16.8163 96.7279 18.4504C96.7279 20.084 96.3749 21.5315 95.6687 22.7928C94.9626 24.0536 93.9893 25.027 92.7487 25.7128C91.5082 26.3987 90.1013 26.7416 88.5279 26.7416C86.3487 26.7416 84.6237 26.0152 83.3527 24.5624V32.4H79.5703V10.3704H83.1711V12.4888C83.7967 11.7224 84.5685 11.1475 85.4863 10.764C86.4042 10.3806 87.4181 10.1888 88.5279 10.1888ZM88.1039 23.5032C89.4959 23.5032 90.6407 23.0392 91.5383 22.1112C92.4359 21.1838 92.8847 19.9635 92.8847 18.4504C92.8847 16.9374 92.4359 15.7168 91.5383 14.7888C90.6407 13.8608 89.4959 13.3968 88.1039 13.3968C87.1962 13.3968 86.3791 13.6035 85.6527 14.0168C84.9263 14.4307 84.3514 15.0208 83.9279 15.7872C83.5045 16.5536 83.2927 17.4414 83.2927 18.4504C83.2927 19.459 83.5045 20.3464 83.9279 21.1128C84.3514 21.8798 84.9263 22.4699 85.6527 22.8832C86.3791 23.2966 87.1962 23.5032 88.1039 23.5032ZM108.278 10.1888C109.851 10.1888 111.258 10.5318 112.498 11.2176C113.739 11.904 114.713 12.8726 115.418 14.1232C116.124 15.3739 116.478 16.8163 116.478 18.4504C116.478 20.084 116.124 21.5315 115.418 22.7928C114.713 24.0536 113.739 25.027 112.498 25.7128C111.258 26.3987 109.851 26.7416 108.278 26.7416C106.099 26.7416 104.374 26.0152 103.103 24.5624V32.4H99.3199V10.3704H102.922V12.4888C103.547 11.7224 104.318 11.1475 105.236 10.764C106.154 10.3806 107.168 10.1888 108.278 10.1888ZM107.854 23.5032C109.246 23.5032 110.39 23.0392 111.288 22.1112C112.186 21.1838 112.634 19.9635 112.634 18.4504C112.634 16.9374 112.186 15.7168 111.288 14.7888C110.39 13.8608 109.246 13.3968 107.854 13.3968C106.946 13.3968 106.129 13.6035 105.402 14.0168C104.676 14.4307 104.102 15.0208 103.678 15.7872C103.254 16.5536 103.042 17.4414 103.042 18.4504C103.042 19.459 103.254 20.3464 103.678 21.1128C104.102 21.8798 104.676 22.4699 105.402 22.8832C106.129 23.2966 106.946 23.5032 107.854 23.5032ZM124.063 26.7416C122.752 26.7416 121.471 26.5702 120.22 26.2272C118.969 25.8843 117.971 25.4504 117.224 24.9256L118.677 22.0512C119.403 22.5355 120.276 22.9238 121.294 23.216C122.313 23.5089 123.316 23.6552 124.305 23.6552C126.564 23.6552 127.694 23.06 127.694 21.8696C127.694 21.3048 127.407 20.9115 126.832 20.6896C126.257 20.4678 125.334 20.2558 124.063 20.0536C122.731 19.852 121.647 19.62 120.81 19.3576C119.973 19.0958 119.247 18.6368 118.631 17.9808C118.016 17.3254 117.708 16.4126 117.708 15.2424C117.708 13.7091 118.348 12.4835 119.63 11.5656C120.911 10.6478 122.64 10.1888 124.819 10.1888C125.929 10.1888 127.039 10.315 128.148 10.5672C129.257 10.8195 130.165 11.1574 130.871 11.5808L129.419 14.456C128.047 13.6491 126.504 13.2456 124.79 13.2456C123.68 13.2456 122.837 13.412 122.262 13.7448C121.687 14.0776 121.4 14.5163 121.4 15.0608C121.4 15.6662 121.708 16.095 122.323 16.3472C122.938 16.5995 123.891 16.8366 125.182 17.0584C126.474 17.26 127.533 17.492 128.36 17.7544C129.187 18.0163 129.898 18.46 130.494 19.0856C131.088 19.7112 131.386 20.599 131.386 21.7488C131.386 23.2614 130.73 24.4718 129.419 25.38C128.108 26.2878 126.322 26.7416 124.063 26.7416ZM142.3 22.9592L143.359 25.652C142.915 26.0152 142.375 26.2875 141.74 26.4688C141.104 26.6507 140.434 26.7416 139.728 26.7416C137.952 26.7416 136.58 26.2776 135.612 25.3496C134.644 24.4216 134.16 23.0699 134.16 21.2944V13.5176H131.497V10.492H134.16V6.80005H137.942V10.492H142.27V13.5176H137.942V21.204C137.942 21.9907 138.134 22.5907 138.517 23.004C138.9 23.4179 139.455 23.6248 140.182 23.6248C141.029 23.6248 141.735 23.403 142.3 22.9592ZM160.113 18.5408C160.113 18.8032 160.092 19.1766 160.052 19.6608H147.374C147.595 20.8507 148.175 21.7936 149.114 22.4896C150.051 23.1856 151.216 23.5336 152.608 23.5336C154.383 23.5336 155.846 22.9486 156.996 21.7784L159.023 24.1088C158.297 24.976 157.379 25.6318 156.27 26.076C155.16 26.5198 153.91 26.7416 152.518 26.7416C150.742 26.7416 149.179 26.3886 147.827 25.6824C146.476 24.9763 145.432 23.9928 144.695 22.732C143.959 21.4712 143.591 20.044 143.591 18.4504C143.591 16.8766 143.949 15.4592 144.665 14.1984C145.381 12.9376 146.375 11.9542 147.646 11.248C148.916 10.5419 150.349 10.1888 151.942 10.1888C153.516 10.1888 154.923 10.5368 156.164 11.2328C157.404 11.9288 158.373 12.9072 159.069 14.168C159.765 15.4288 160.113 16.8864 160.113 18.5408ZM151.942 13.2152C150.732 13.2152 149.708 13.5734 148.871 14.2896C148.034 15.0054 147.524 15.9584 147.343 17.1488H156.512C156.35 15.9787 155.856 15.0307 155.029 14.3048C154.202 13.5784 153.173 13.2152 151.942 13.2152ZM177.926 18.5408C177.926 18.8032 177.906 19.1766 177.866 19.6608H165.186C165.408 20.8507 165.988 21.7936 166.926 22.4896C167.864 23.1856 169.03 23.5336 170.422 23.5336C172.196 23.5336 173.659 22.9486 174.809 21.7784L176.837 24.1088C176.11 24.976 175.192 25.6318 174.083 26.076C172.973 26.5198 171.722 26.7416 170.33 26.7416C168.555 26.7416 166.992 26.3886 165.64 25.6824C164.288 24.9763 163.245 23.9928 162.509 22.732C161.772 21.4712 161.404 20.044 161.404 18.4504C161.404 16.8766 161.762 15.4592 162.478 14.1984C163.194 12.9376 164.187 11.9542 165.458 11.248C166.729 10.5419 168.162 10.1888 169.756 10.1888C171.329 10.1888 172.736 10.5368 173.977 11.2328C175.217 11.9288 176.186 12.9072 176.882 14.168C177.578 15.4288 177.926 16.8864 177.926 18.5408ZM169.756 13.2152C168.545 13.2152 167.521 13.5734 166.684 14.2896C165.847 15.0054 165.338 15.9584 165.156 17.1488H174.325C174.164 15.9787 173.67 15.0307 172.842 14.3048C172.015 13.5784 170.986 13.2152 169.756 13.2152ZM184.15 12.7312C185.239 11.0363 187.155 10.1888 189.898 10.1888V13.7904C189.576 13.7296 189.283 13.6992 189.022 13.6992C187.548 13.6992 186.398 14.128 185.571 14.9856C184.744 15.8427 184.331 17.0782 184.331 18.692V26.5296H180.548V10.3704H184.15V12.7312Z" fill="#077BB2"/>
<defs>
<linearGradient id="paint0_linear_320_2611" x1="33.2833" y1="21.7805" x2="48.5818" y2="40.0614" gradientUnits="userSpaceOnUse">
<stop offset="0.0217391" stop-color="#F27B31"/>
<stop offset="1" stop-color="#FFB47B"/>
</linearGradient>
</defs>
</svg>
